// Firstly run this program
// It has some errors
/* You should comment lines with errors () to run program successfully.
   If there is more than one line use block comment construction.
*/

#include<stdio.h>

int main()
{
  int a = 2;
  double d = 4.5;

  a = a + 56.35;
  printf("%d\n", a)

  int b, c, d;

  b = c = d = 5
  printf("%453333\n", b ** d);

  printf("Success\n");
  return 0;
}